Return-Path: <matt@apisnetworks.com>
X-Spam-Checker-Version: SpamAssassin 3.4.0 (2014-02-07) on
	image.apisnetworks.com
X-Spam-Level: 
X-Spam-ASN: AS36351 50.116.16.0/20
X-Spam-Status: No, score=0.5 required=5.0 tests=AWL,BAYES_20,HTML_MESSAGE,
	RP_MATCHES_RCVD shortcircuit=no autolearn=no autolearn_force=no version=3.4.0
X-Original-To: matt@apisnetworks.com
Delivered-To: matt@apisnetworks.com
Received: from sputnik.apisnetworks.com (sputnik.apisnetworks.com [50.116.18.181])
	by image.apisnetworks.com (Postfix) with ESMTP id 164F9197D459
	for <matt@apisnetworks.com>; Wed, 28 May 2014 10:17:47 -0400 (EDT)
Message-ID: <5385F00B.7010902@apisnetworks.com>
DKIM-Signature: v=1; a=rsa-sha256; c=relaxed/relaxed; d=apisnetworks.com;
	s=dkim; t=1401286666;
	bh=Bx5aoIxfemV+C1O6/kzE/5cZBmtgh6jwkP1o6+wFuvc=;
	h=Date:From:MIME-Version:To:Subject:References:In-Reply-To:
	 Content-Type;
	b=B/Z5E4+PxZUy6Z7tLridBLihvfkYX60G6DGD3ohSJyO8/Wl8qDpjqSMqH0oe57stv
	 tHEdY83JBgOlKP5MPQhwmTGHPaOMRh3eG0W8Ms9tZ0B41O8i1g8Z9s9DKY0lVLf2eB
	 eUi0YGEdI1BuLX6Ez5LuVHTwwQ+pJ57Cm/xOb+nI=
Date: Wed, 28 May 2014 10:17:47 -0400
From: Matt Saladna <matt@apisnetworks.com>
User-Agent: Mozilla/5.0 (Windows NT 6.1; WOW64; rv:24.0) Gecko/20100101 Thunderbird/24.5.0
MIME-Version: 1.0
To: spam@apisnetworks.com
Subject: Fwd: [SPAM] (6.3) (BAJ) Your turn!
References: <20140528040014.9175.qmail@ns213156.ovh.net>
In-Reply-To: <20140528040014.9175.qmail@ns213156.ovh.net>
X-Forwarded-Message-Id: <20140528040014.9175.qmail@ns213156.ovh.net>
Content-Type: multipart/alternative;
 boundary="------------030302000403030605030900"

This is a multi-part message in MIME format.
--------------030302000403030605030900
Content-Type: text/plain; charset=UTF-8; format=flowed
Content-Transfer-Encoding: 7bit



- Matt


-------- Original Message --------
Subject: 	[SPAM] (6.3) (BAJ) Your turn!
Date: 	28 May 2014 04:00:14 -0000
From: 	robot@boiteajeux.net
Reply-To: 	robot@boiteajeux.net
To: 	msaladna@apisnetworks.com



www.boiteajeux.net This email was sent by www.boiteajeux.net.
It's your turn in the following game(s) :

DIE BURGEN VON BURGUND Game #94004 
<http://www.boiteajeux.net/jeux/cdb/partie.php?id=94004>
Don't answer this message, it was sent by a robot.

The BAJ team.
http://www.boiteajeux.net



--------------030302000403030605030900
Content-Type: text/html; charset=UTF-8
Content-Transfer-Encoding: 7bit

<html>
  <head>

    <meta http-equiv="content-type" content="text/html; charset=UTF-8">
  </head>
  <body bgcolor="#FFFFFF" text="#000000">
    <br>
    <div class="moz-forward-container"><br>
      <div class="moz-signature">- Matt</div>
      <br>
      <br>
      -------- Original Message --------
      <table class="moz-email-headers-table" cellpadding="0"
        cellspacing="0" border="0">
        <tbody>
          <tr>
            <th align="RIGHT" nowrap="nowrap" valign="BASELINE">Subject:
            </th>
            <td>[SPAM] (6.3) (BAJ) Your turn!</td>
          </tr>
          <tr>
            <th align="RIGHT" nowrap="nowrap" valign="BASELINE">Date: </th>
            <td>28 May 2014 04:00:14 -0000</td>
          </tr>
          <tr>
            <th align="RIGHT" nowrap="nowrap" valign="BASELINE">From: </th>
            <td><a class="moz-txt-link-abbreviated" href="mailto:robot@boiteajeux.net">robot@boiteajeux.net</a></td>
          </tr>
          <tr>
            <th align="RIGHT" nowrap="nowrap" valign="BASELINE">Reply-To:
            </th>
            <td><a class="moz-txt-link-abbreviated" href="mailto:robot@boiteajeux.net">robot@boiteajeux.net</a></td>
          </tr>
          <tr>
            <th align="RIGHT" nowrap="nowrap" valign="BASELINE">To: </th>
            <td><a class="moz-txt-link-abbreviated" href="mailto:msaladna@apisnetworks.com">msaladna@apisnetworks.com</a></td>
          </tr>
        </tbody>
      </table>
      <br>
      <br>
      <meta http-equiv="Content-Type" content="text/html; charset=UTF-8">
      <title><a class="moz-txt-link-abbreviated" href="http://www.boiteajeux.net">www.boiteajeux.net</a></title>
      This email was sent by <a class="moz-txt-link-abbreviated" href="http://www.boiteajeux.net">www.boiteajeux.net</a>.<br>
      It's your turn in the following game(s) :<br>
      <br>
      DIE BURGEN VON BURGUND
      <a moz-do-not-send="true"
        href="http://www.boiteajeux.net/jeux/cdb/partie.php?id=94004">Game
        #94004</a>
      <br>
      Don't answer this message, it was sent by a robot.<br>
      <br>
      The BAJ team.<br>
      <a moz-do-not-send="true" href="http://www.boiteajeux.net">http://www.boiteajeux.net</a><br>
      <br>
    </div>
    <br>
  </body>
</html>

--------------030302000403030605030900--
